Communication_Protocols/I2C/I2C_Master_tb.vcd
$date
	Thu Nov 16 23:16:02 2023
$end
$version
	Icarus Verilog
$end
$timescale
	1ns
$end
$scope module i2c_master_tb $end
$var wire 1 ! sda_out $end
$var wire 1 " scl $end
$var wire 8 # ext_data_out [7:0] $end
$var reg 1 $ clk $end
$var reg 1 % en $end
$var reg 7 & ext_address_in [6:0] $end
$var reg 8 ' ext_data_in [7:0] $end
$var reg 1 ( ext_read_write_in $end
$var reg 1 ) rst $end
$var reg 1 * sda_in $end
$scope module uut $end
$var wire 1 $ clk $end
$var wire 1 % en $end
$var wire 7 + ext_address_in [6:0] $end
$var wire 8 , ext_data_in [7:0] $end
$var wire 1 ( ext_read_write_in $end
$var wire 1 ) rst $end
$var wire 1 * sda_in $end
$var reg 8 - address_save [7:0] $end
$var reg 1 . clock_count $end
$var reg 3 / current_state [2:0] $end
$var reg 4 0 data_count [3:0] $end
$var reg 8 1 ext_data_out [7:0] $end
$var reg 3 2 next_state [2:0] $end
$var reg 1 " scl $end
$var reg 1 ! sda_out $end
$upscope $end
$upscope $end
$enddefinitions $end
#0
$dumpvars
bx 2
bx 1
bx 0
bx /
x.
bx -
bx ,
bx +
x*
x)
x(
bx '
bx &
x%
0$
bx #
x"
x!
$end
#10
1!
1"
0.
b0 0
b0 -
b0 /
1)
1$
#20
0$
#30
1$
#40
0$
#50
1$
#60
0$
0)
#70
b0 2
bx /
bx -
1$
#80
0$
#90
b0 /
1$
#100
0$
#110
b10101011 -
1$
1(
b1010101 &
b1010101 +
#120
0$
#130
1$
#140
b1 2
0$
1%
#150
b10 2
0!
b1 /
1$
#160
0$
0%
#170
1!
0"
1.
b10 /
1$
#180
0$
#190
1"
0.
1$
#200
0$
#210
0!
0"
1.
b1 0
b1010110 -
1$
#220
0$
#230
1"
0.
1$
#240
0$
#250
1!
0"
1.
b10 0
b10101100 -
1$
#260
0$
#270
1"
0.
1$
#280
0$
#290
0!
0"
1.
b11 0
b1011000 -
1$
#300
0$
#310
1"
0.
1$
#320
0$
#330
1!
0"
1.
b100 0
b10110000 -
1$
#340
0$
#350
1"
0.
1$
#360
0$
#370
0!
0"
1.
b101 0
b1100000 -
1$
#380
0$
#390
1"
0.
1$
#400
0$
#410
1!
0"
1.
b110 0
b11000000 -
1$
#420
0$
#430
1"
0.
1$
#440
0$
#450
0"
1.
b111 0
b10000000 -
1$
#460
0$
#470
1"
0.
1$
#480
0$
#490
0!
0"
1.
b1000 0
b0 -
1$
#500
0$
#510
1"
0.
1$
#520
0$
#530
0"
1.
b1001 0
1$
#540
0$
#550
1"
0.
1$
#560
0$
#570
0"
1.
b0 0
1$
#580
0$
#590
1"
0.
1$
#600
0$
#610
0"
1.
b1 0
1$
#620
0$
#630
1"
0.
1$
#640
0$
#650
0"
1.
b10 0
1$
#660
0$
#670
1"
0.
1$
#680
0$
#690
0"
1.
b11 0
1$
#700
0$
#710
1"
0.
1$
#720
0$
#730
0"
1.
b100 0
1$
#740
0$
#750
1"
0.
1$
#760
0$
#770
0"
1.
b101 0
1$
#780
0$
#790
1"
0.
1$
#800
0$
#810
0"
1.
b110 0
1$
#820
0$
#830
1"
0.
1$
#840
0$
#850
0"
1.
b111 0
1$
#860
0$
#870
1"
0.
1$
#880
0$
#890
0"
1.
b1000 0
1$
#900
0$
#910
1"
0.
1$
#920
0$
#930
0"
1.
b1001 0
1$
#940
0$
#950
1"
0.
1$
#960
0$
#970
0"
1.
b0 0
1$
#980
0$
#990
1"
0.
1$
#1000
0$
#1010
0"
1.
b1 0
1$
#1020
0$
#1030
1"
0.
1$
#1040
0$
#1050
0"
1.
b10 0
1$
#1060
0$
#1070
1"
0.
1$
#1080
0$
#1090
0"
1.
b11 0
1$
#1100
0$
#1110
1"
0.
1$
#1120
0$
#1130
0"
1.
b100 0
1$
#1140
0$
#1150
1"
0.
1$
#1160
0$
#1170
0"
1.
b101 0
1$
#1180
0$
#1190
1"
0.
1$
#1200
0$
#1210
0"
1.
b110 0
1$
#1220
0$
#1230
1"
0.
1$
#1240
0$
#1250
0"
1.
b111 0
1$
#1260
0$
#1270
1"
0.
1$
#1280
0$
#1290
0"
1.
b1000 0
1$
#1300
0$
#1310
1"
0.
1$
#1320
0$
#1330
0"
1.
b1001 0
1$
#1340
0$
#1350
1"
0.
1$
#1360
0$
#1370
0"
1.
b0 0
1$
#1380
0$
#1390
1"
0.
1$
#1400
0$
#1410
0"
1.
b1 0
1$
#1420
0$
#1430
1"
0.
1$
#1440
0$
#1450
0"
1.
b10 0
1$
#1460
0$
#1470
1"
0.
1$
#1480
0$
#1490
0"
1.
b11 0
1$
#1500
0$
#1510
1"
0.
1$
#1520
0$
#1530
0"
1.
b100 0
1$
#1540
0$
#1550
1"
0.
1$
#1560
0$
#1570
0"
1.
b101 0
1$
#1580
0$
#1590
1"
0.
1$
#1600
0$
#1610
0"
1.
b110 0
1$
#1620
0$
#1630
1"
0.
1$
#1640
0$
#1650
0"
1.
b111 0
1$
#1660
0$
#1670
1"
0.
1$
#1680
0$
#1690
0"
1.
b1000 0
1$
#1700
0$
#1710
1"
0.
1$
#1720
0$
#1730
0"
1.
b1001 0
1$
#1740
0$
#1750
1"
0.
1$
#1760
0$
#1770
0"
1.
b0 0
1$
#1780
0$
#1790
1"
0.
1$
#1800
0$
#1810
0"
1.
b1 0
1$
#1820
0$
#1830
1"
0.
1$
#1840
0$
#1850
0"
1.
b10 0
1$
#1860
0$
#1870
1"
0.
1$
#1880
0$
#1890
0"
1.
b11 0
1$
#1900
0$
#1910
1"
0.
1$
#1920
0$
#1930
0"
1.
b100 0
1$
#1940
0$
#1950
1"
0.
1$
#1960
0$
#1970
0"
1.
b101 0
1$
#1980
0$
#1990
1"
0.
1$
#2000
0$
#2010
0"
1.
b110 0
1$
#2020
0$
#2030
1"
0.
1$
#2040
0$
#2050
0"
1.
b111 0
1$
#2060
0$
#2070
1"
0.
1$
#2080
0$
#2090
0"
1.
b1000 0
1$
#2100
0$
#2110
1"
0.
1$
#2120
0$
#2130
0"
1.
b1001 0
1$
#2140
0$
#2150
1"
0.
1$
#2160
0$
#2170
0"
1.
b0 0
1$
#2180
0$
#2190
1"
0.
1$
#2200
0$
#2210
0"
1.
b1 0
1$
#2220
0$
#2230
1"
0.
1$
#2240
0$
#2250
0"
1.
b10 0
1$
#2260
0$
#2270
1"
0.
1$
#2280
0$
#2290
0"
1.
b11 0
1$
#2300
0$
#2310
1"
0.
1$
#2320
0$
#2330
0"
1.
b100 0
1$
#2340
0$
#2350
1"
0.
1$
#2360
0$
#2370
0"
1.
b101 0
1$
#2380
0$
#2390
1"
0.
1$
#2400
0$
#2410
0"
1.
b110 0
1$
#2420
0$
#2430
1"
0.
1$
#2440
0$
#2450
0"
1.
b111 0
1$
#2460
0$
#2470
1"
0.
1$
#2480
0$
#2490
0"
1.
b1000 0
1$
#2500
0$
#2510
1"
0.
1$
#2520
0$
#2530
0"
1.
b1001 0
1$
#2540
0$
#2550
1"
0.
1$
#2560
0$
#2570
0"
1.
b0 0
1$
#2580
0$
#2590
1"
0.
1$
#2600
0$
#2610
0"
1.
b1 0
1$
#2620
0$
#2630
1"
0.
1$
#2640
0$
#2650
0"
1.
b10 0
1$
#2660
0$
#2670
1"
0.
1$
#2680
0$
#2690
0"
1.
b11 0
1$
#2700
0$
#2710
1"
0.
1$
#2720
0$
#2730
0"
1.
b100 0
1$
#2740
0$
#2750
1"
0.
1$
#2760
0$
#2770
0"
1.
b101 0
1$
#2780
0$
#2790
1"
0.
1$
#2800
0$
#2810
0"
1.
b110 0
1$
#2820
0$
#2830
1"
0.
1$
#2840
0$
#2850
0"
1.
b111 0
1$
#2860
0$
#2870
1"
0.
1$
#2880
0$
#2890
0"
1.
b1000 0
1$
#2900
0$
#2910
1"
0.
1$
#2920
0$
#2930
0"
1.
b1001 0
1$
#2940
0$
#2950
1"
0.
1$
#2960
0$
#2970
0"
1.
b0 0
1$
#2980
0$
#2990
1"
0.
1$
#3000
0$
#3010
0"
1.
b1 0
1$
#3020
0$
#3030
1"
0.
1$
#3040
0$
#3050
0"
1.
b10 0
1$
#3060
0$
#3070
1"
0.
1$
#3080
0$
#3090
0"
1.
b11 0
1$
#3100
0$
#3110
1"
0.
1$
#3120
0$
#3130
0"
1.
b100 0
1$
#3140
0$
#3150
1"
0.
1$
