Communication_Protocols/I2C/I2C_tb.vcd
$date
	Fri Nov 24 23:18:14 2023
$end
$version
	Icarus Verilog
$end
$timescale
	1ns
$end
$scope module i2c_tb $end
$var wire 32 ! ext_data_out [31:0] $end
$var reg 1 " clk $end
$var reg 1 # en $end
$var reg 32 $ ext_data_in [31:0] $end
$var reg 1 % ext_read_write_in $end
$var reg 8 & ext_register_address_in [7:0] $end
$var reg 7 ' ext_slave_address_in [6:0] $end
$var reg 1 ( rst $end
$scope module uut $end
$var wire 1 " clk $end
$var wire 1 # en $end
$var wire 32 ) ext_data_in [31:0] $end
$var wire 1 % ext_read_write_in $end
$var wire 8 * ext_register_address_in [7:0] $end
$var wire 7 + ext_slave_address_in [6:0] $end
$var wire 1 ( rst $end
$var wire 1 , sda_out $end
$var wire 1 - sda_in $end
$var wire 1 . scl $end
$var wire 32 / ext_data_out [31:0] $end
$scope module uut_master $end
$var wire 1 " clk $end
$var wire 1 # en $end
$var wire 32 0 ext_data_in [31:0] $end
$var wire 32 1 ext_data_out [31:0] $end
$var wire 1 % ext_read_write_in $end
$var wire 8 2 ext_register_address_in [7:0] $end
$var wire 7 3 ext_slave_address_in [6:0] $end
$var wire 1 ( rst $end
$var wire 1 - sda_in $end
$var reg 1 4 ack $end
$var reg 6 5 bit_count [5:0] $end
$var reg 1 6 clock_count $end
$var reg 4 7 current_state [3:0] $end
$var reg 32 8 data_read [31:0] $end
$var reg 32 9 data_write [31:0] $end
$var reg 1 : delayed_repeated_start_indication $end
$var reg 4 ; next_state [3:0] $end
$var reg 1 < read_write_save $end
$var reg 8 = register_address_save [7:0] $end
$var reg 1 > repeated_start_indication $end
$var reg 1 . scl $end
$var reg 1 , sda_out $end
$var reg 8 ? slave_address_save [7:0] $end
$upscope $end
$scope module uut_slave $end
$var wire 1 " clk $end
$var wire 1 @ repeated_start_signal $end
$var wire 1 ( rst $end
$var wire 1 . scl $end
$var wire 1 , sda_out $end
$var reg 6 A accelerated_bit_count [5:0] $end
$var reg 1 B ack $end
$var reg 6 C bit_count [5:0] $end
$var reg 4 D current_state [3:0] $end
$var reg 1 E data_check $end
$var reg 32 F data_read [31:0] $end
$var reg 32 G data_write [31:0] $end
$var reg 1 H delayed_repeated_start_indication $end
$var reg 4 I next_state [3:0] $end
$var reg 1 J read_write_save $end
$var reg 1 K register_address_check $end
$var reg 8 L register_address_save [7:0] $end
$var reg 1 M repeated_start_indication $end
$var reg 1 - sda_in $end
$var reg 1 N slave_address_check $end
$var reg 8 O slave_address_save [7:0] $end
$upscope $end
$upscope $end
$upscope $end
$enddefinitions $end
#0
$dumpvars
bx O
xN
xM
bx L
xK
xJ
bx I
xH
bx G
bx F
xE
bx D
bx C
xB
bx A
x@
bx ?
x>
bx =
x<
bx ;
x:
bx 9
bx 8
bx 7
x6
bx 5
x4
bx 3
bx 2
bx 1
bx 0
bx /
x.
x-
x,
bx +
bx *
bx )
x(
bx '
bx &
x%
bx $
x#
0"
bx !
$end
#10
b0 F
1B
0J
b0 O
b0 L
b0 G
06
b0 5
b0 =
b0 !
b0 /
b0 1
b0 8
b0 9
0:
b0 7
0<
b0 ?
b0 C
b0 A
0H
b0 D
0@
0>
b0 ;
14
0M
b0 I
0E
0K
0N
1(
1"
#20
0"
#30
1"
#40
0"
#50
1"
#60
x<
bx ?
1,
1.
1-
0"
0(
#70
bx 9
bx =
1"
#80
0"
#90
1"
#100
0"
#110
b10010001101000101100010101110 9
b10111111 =
0<
b11010110 ?
1"
b10010001101000101100010101110 $
b10010001101000101100010101110 )
b10010001101000101100010101110 0
b10111111 &
b10111111 *
b10111111 2
0%
b1101011 '
b1101011 +
b1101011 3
#120
0"
#130
1"
#140
b1 ;
0"
1#
#150
b10 I
b10 ;
0,
b1 7
1"
#160
0"
0#
#170
1,
0.
16
b10 7
b10 D
1"
#180
0"
#190
b1 O
1.
06
b1 A
1"
#200
0"
#210
0.
16
b1 5
b1 C
b10101100 ?
1"
#220
0"
#230
b11 O
1.
06
b10 A
1"
#240
0"
#250
0,
0.
16
b10 5
b10 C
b1011000 ?
1"
#260
0"
#270
b110 O
1.
06
b11 A
1"
#280
0"
#290
1,
0.
16
b11 5
b11 C
b10110000 ?
1"
#300
0"
#310
b1101 O
1.
06
b100 A
1"
#320
0"
#330
0,
0.
16
b100 5
b100 C
b1100000 ?
1"
#340
0"
#350
b11010 O
1.
06
b101 A
1"
#360
0"
#370
1,
0.
16
b101 5
b101 C
b11000000 ?
1"
#380
0"
#390
b110101 O
1.
06
b110 A
1"
#400
0"
#410
0.
16
b110 5
b110 C
b10000000 ?
1"
#420
0"
#430
b1101011 O
1.
06
b111 A
1"
#440
0"
#450
0,
0.
16
b111 5
b111 C
b0 ?
1"
#460
0"
#470
b11010110 O
b11 ;
1.
b11 I
06
b1000 A
1"
#480
0"
#490
1,
0.
16
b1000 5
b11 7
b11 D
b1000 C
1"
#500
0"
#510
b1110 ;
1.
b1110 I
06
b11010110 ?
b1001 A
1"
#520
0"
#530
b0 ;
0,
b1 I
16
b1001 5
b1110 7
b1110 D
b1001 C
1"
#540
0"
#550
1,
b0 I
b0 7
b0 5
06
b0 C
b0 A
b1 D
1"
#560
0"
#570
b0 D
1"
